…
# 0. Read data

**Suppl. Data SI.** List of all the publications that discussed and/or
quantified carotenoid pigmentation in copepods

``` r
SI <- read_delim("DataS1_general_info.csv", ";", escape_double = FALSE, trim_ws = TRUE)
SI
```

    # A tibble: 303 × 22
       study             year no    study_type latitude longitude ecosystem altitude
       <chr>            <dbl> <chr> <chr>         <dbl>     <dbl> <chr>        <dbl>
     1 Gorokhova et al.  2013 <NA>  redness a…     59         25  marine          NA
     2 Gorokhova et al.  2013 <NA>  redness a…     59         25  marine          NA
     3 Anderson et al.   2003 <NA>  diet effe…     54         12  marine          NA
     4 Hairston          1976 <NA>  redness a…     47.4     -120. freshwat…      328
     5 Hairston          1976 <NA>  redness a…     47.5     -120. freshwat…      328
     6 Bandaranayake a…  1982 <NA>  pigment i…    -18.5      147  marine          NA
     7 Bandaranayake a…  1982 <NA>  pigment i…    -18.5      147  marine          NA
     8 Bandaranayake a…  1982 <NA>  pigment i…    -18.5      147  marine          NA
     9 Bandaranayake a…  1982 <NA>  pigment i…    -18.5      147  marine          NA
    10 Byron             1982 <NA>  forcing v…     40       -105  freshwat…     3216
    # … with 293 more rows, and 14 more variables: sampling_month <chr>,
    #   genus <chr>, species <chr>, stage <chr>, astaxanthin_or_carotenoids <chr>,
    #   astaxanthin_on_total_car <chr>, asta_form <chr>, concentration <chr>,
    #   unit <chr>, daily_pic_moment <chr>, seasonal_pic_season <chr>,
    #   seasonal_pic_month <chr>, predator_abundance <chr>, comments <chr>

<br/> **Suppl. Data SII.** List of the detailed quantifications of
carotenoids forms in copepods found in 38 articles from the literature

``` r
SII <- read_delim("DataS2_asta_form_detailed.csv", ";", escape_double = FALSE, trim_ws = TRUE)
SII
```

    # A tibble: 38 × 11
       study            year order latitude ecosystem species stage free  all_esters
       <chr>           <dbl> <chr>    <dbl> <chr>     <chr>   <chr> <chr> <chr>     
     1 Anderson et al.  2003 <NA>        54 marine    Acarti… mixed 72    30        
     2 Bandaranayake …  1982 <NA>      -185 marine    Temora… mixed mino… dominant  
     3 Bandaranayake …  1982 <NA>      -185 marine    Centro… mixed mino… dominant  
     4 Bandaranayake …  1982 <NA>      -185 marine    Undinu… mixed mino… dominant  
     5 Bandaranayake …  1982 <NA>      -185 marine    Euchae… mixed domi… minority  
     6 Foss et al.      1987 <NA>        62 marine    Calanu… adul… 11    89        
     7 Goodwin and Sr…  1949 <NA>        53 marine    Tigrio… adul… domi… minority  
     8 Holeton et al.   2009 <NA>        58 marine    Acarti… adul… 55    45        
     9 Juhl et al.      1996 <NA>        32 marine    Calanu… adul… 15    85        
    10 Juhl et al.      1996 <NA>        34 marine    Calanu… adul… 15    85        
    # … with 28 more rows, and 2 more variables: `mono-esters` <dbl>,
    #   `di-esters` <dbl>

<br/> **Suppl. Data SIII.** Abiotic and biotic variables effects on
copepod astaxanthin concentrations from the literature

``` r
SIII <- read_delim("DataS3_forcing_variables.csv", ";", escape_double = FALSE, trim_ws = TRUE)
SIII
```

    # A tibble: 179 × 8
       study       year order condition forcing_variable asta_correlation confidence
       <chr>      <dbl> <chr> <chr>     <chr>            <chr>            <chr>     
     1 Anderson …  2003 <NA>  mesocosm  diet_composition positive         high      
     2 Anderson …  2003 <NA>  mesocosm  diet_quantity    positive         high      
     3 Anderson …  2003 <NA>  mesocosm  feeding_activity positive         high      
     4 Anderson …  2003 <NA>  mesocosm  diurnal_variati… positive         high      
     5 Byron       1982 <NA>  in vivo   lake_elevation   positive         high      
     6 Byron       1982 <NA>  in vivo   lake_depth       negative         high      
     7 Byron       1982 <NA>  in vivo   UV_radiations    negative         high      
     8 Byron       1982 <NA>  in vivo   temperature      negative         high      
     9 Byron       1982 <NA>  in vivo   diet_quantity    none             high      
    10 Byron       1982 <NA>  in vivo   fish_presence    negative         medium    
    # … with 169 more rows, and 1 more variable: comments <chr>

<br/> **Suppl. Data SIV.** List of the effects of carotenoid
pigmentation on fitness-related variables in copepods

``` r
SIV <- read_delim("DataS4_fitness_effects.csv", ";", escape_double = FALSE, trim_ws = TRUE)
SIV
```

    # A tibble: 55 × 11
       study            year  condition forcing_variable response_variable     unit 
       <chr>            <chr> <chr>     <chr>            <chr>                 <chr>
     1 Gorokhova et al. 2013  in vivo   <NA>             Grazing rate          ugC …
     2 Gorokhova et al. 2013  in vivo   <NA>             Egg ratio             egg …
     3 Gorokhova et al. 2013  in vivo   <NA>             RNA:DNA (metabolic i… <NA> 
     4 Gorokhova et al. 2013  in vivo   <NA>             ORAC (Oxygen radical… uM T…
     5 Gorokhova et al. 2013  in vitro  <NA>             % Eaten by predator   prey…
     6 Gorokhova et al. 2013  in vitro  <NA>             Red prey preference … Manl…
     7 Gorokhova et al. 2013  in vitro  <NA>             Grazing rate          ugC …
     8 Gorokhova et al. 2013  in vitro  <NA>             RNA:DNA (metabolic i… <NA> 
     9 Gorokhova et al. 2013  in vitro  <NA>             ORAC (Oxygen radical… uM T…
    10 Hairston         1976  in vitro  UV_radiations    % Survival            <NA> 
    # … with 45 more rows, and 5 more variables: fitness_component <chr>,
    #   fitness_effect <chr>, confidence <chr>, graph_order <dbl>, comments <chr>
…
